^D:\USERS\USER-PC\DOCUMENTS\AMIT_FIRST\AMIT+OMRI_TAKI_PROJECT\AMIT+OMRI_TAKI_PROJECT\AMIT+OMRI_TAKI_PROJECT\CARD.CPP
/c /Zi /nologo /W3 /WX- /sdl /O2 /Oi /Oy- /GL /D _MBCS /Gm- /EHsc /MD /GS /Gy /fp:precise /Zc:wchar_t /Zc:forScope /Fo"RELEASE\\" /Fd"RELEASE\VC120.PDB" /Gd /TP /analyze- D:\USERS\USER-PC\DOCUMENTS\AMIT_FIRST\AMIT+OMRI_TAKI_PROJECT\AMIT+OMRI_TAKI_PROJECT\AMIT+OMRI_TAKI_PROJECT\CARD.CPP
^D:\USERS\USER-PC\DOCUMENTS\AMIT_FIRST\AMIT+OMRI_TAKI_PROJECT\AMIT+OMRI_TAKI_PROJECT\AMIT+OMRI_TAKI_PROJECT\COMMAND.CPP
/c /Zi /nologo /W3 /WX- /sdl /O2 /Oi /Oy- /GL /D _MBCS /Gm- /EHsc /MD /GS /Gy /fp:precise /Zc:wchar_t /Zc:forScope /Fo"RELEASE\\" /Fd"RELEASE\VC120.PDB" /Gd /TP /analyze- D:\USERS\USER-PC\DOCUMENTS\AMIT_FIRST\AMIT+OMRI_TAKI_PROJECT\AMIT+OMRI_TAKI_PROJECT\AMIT+OMRI_TAKI_PROJECT\COMMAND.CPP
^D:\USERS\USER-PC\DOCUMENTS\AMIT_FIRST\AMIT+OMRI_TAKI_PROJECT\AMIT+OMRI_TAKI_PROJECT\AMIT+OMRI_TAKI_PROJECT\ROOM.CPP
/c /Zi /nologo /W3 /WX- /sdl /O2 /Oi /Oy- /GL /D _MBCS /Gm- /EHsc /MD /GS /Gy /fp:precise /Zc:wchar_t /Zc:forScope /Fo"RELEASE\\" /Fd"RELEASE\VC120.PDB" /Gd /TP /analyze- D:\USERS\USER-PC\DOCUMENTS\AMIT_FIRST\AMIT+OMRI_TAKI_PROJECT\AMIT+OMRI_TAKI_PROJECT\AMIT+OMRI_TAKI_PROJECT\ROOM.CPP
^D:\USERS\USER-PC\DOCUMENTS\AMIT_FIRST\AMIT+OMRI_TAKI_PROJECT\AMIT+OMRI_TAKI_PROJECT\AMIT+OMRI_TAKI_PROJECT\SERVER.CPP
/c /Zi /nologo /W3 /WX- /sdl /O2 /Oi /Oy- /GL /D _MBCS /Gm- /EHsc /MD /GS /Gy /fp:precise /Zc:wchar_t /Zc:forScope /Fo"RELEASE\\" /Fd"RELEASE\VC120.PDB" /Gd /TP /analyze- D:\USERS\USER-PC\DOCUMENTS\AMIT_FIRST\AMIT+OMRI_TAKI_PROJECT\AMIT+OMRI_TAKI_PROJECT\AMIT+OMRI_TAKI_PROJECT\SERVER.CPP
^D:\USERS\USER-PC\DOCUMENTS\AMIT_FIRST\AMIT+OMRI_TAKI_PROJECT\AMIT+OMRI_TAKI_PROJECT\AMIT+OMRI_TAKI_PROJECT\SPACEAPI.CPP
/c /Zi /nologo /W3 /WX- /sdl /O2 /Oi /Oy- /GL /D _MBCS /Gm- /EHsc /MD /GS /Gy /fp:precise /Zc:wchar_t /Zc:forScope /Fo"RELEASE\\" /Fd"RELEASE\VC120.PDB" /Gd /TP /analyze- D:\USERS\USER-PC\DOCUMENTS\AMIT_FIRST\AMIT+OMRI_TAKI_PROJECT\AMIT+OMRI_TAKI_PROJECT\AMIT+OMRI_TAKI_PROJECT\SPACEAPI.CPP
^D:\USERS\USER-PC\DOCUMENTS\AMIT_FIRST\AMIT+OMRI_TAKI_PROJECT\AMIT+OMRI_TAKI_PROJECT\AMIT+OMRI_TAKI_PROJECT\CLIENT.CPP
/c /Zi /nologo /W3 /WX- /sdl /O2 /Oi /Oy- /GL /D _MBCS /Gm- /EHsc /MD /GS /Gy /fp:precise /Zc:wchar_t /Zc:forScope /Fo"RELEASE\\" /Fd"RELEASE\VC120.PDB" /Gd /TP /analyze- D:\USERS\USER-PC\DOCUMENTS\AMIT_FIRST\AMIT+OMRI_TAKI_PROJECT\AMIT+OMRI_TAKI_PROJECT\AMIT+OMRI_TAKI_PROJECT\CLIENT.CPP
^D:\USERS\USER-PC\DOCUMENTS\AMIT_FIRST\AMIT+OMRI_TAKI_PROJECT\AMIT+OMRI_TAKI_PROJECT\AMIT+OMRI_TAKI_PROJECT\EXECUTE.CPP
/c /Zi /nologo /W3 /WX- /sdl /O2 /Oi /Oy- /GL /D _MBCS /Gm- /EHsc /MD /GS /Gy /fp:precise /Zc:wchar_t /Zc:forScope /Fo"RELEASE\\" /Fd"RELEASE\VC120.PDB" /Gd /TP /analyze- D:\USERS\USER-PC\DOCUMENTS\AMIT_FIRST\AMIT+OMRI_TAKI_PROJECT\AMIT+OMRI_TAKI_PROJECT\AMIT+OMRI_TAKI_PROJECT\EXECUTE.CPP
